<svg width="34" height="32" viewBox="0 0 34 32" fill="none" xmlns="http://www.w3.org/2000/svg">
<path fill-rule="evenodd" clip-rule="evenodd" d="M13.6707 0.76978L14.8127 0.629897C17.6497 0.28238 20.2327 2.29888 20.5803 5.13594L21.0825 9.23647C21.1161 9.51057 20.9211 9.75998 20.647 9.79355L17.7467 10.1488C17.4726 10.1824 17.2776 10.4318 17.3112 10.7059L18.2925 18.7172C18.3261 18.9913 18.1311 19.2407 17.857 19.2743L6.68425 20.6429C6.41016 20.6765 6.16074 20.4815 6.12717 20.2074L5.14584 12.1961C5.11227 11.922 4.86285 11.727 4.58876 11.7606L1.68842 12.1158C1.41433 12.1494 1.16491 11.9544 1.13134 11.6803L0.629055 7.5798C0.281538 4.74275 2.29841 2.1628 5.13547 1.81528L6.2805 1.67502C6.54695 1.64238 6.78751 1.82812 6.87141 2.08311C7.31893 3.44316 8.67663 4.34501 10.1511 4.1644L10.5153 4.11978C11.9926 3.93883 13.0903 2.73622 13.1958 1.30843C13.2156 1.04072 13.4043 0.802418 13.6707 0.76978ZM9.52841 9.03163C8.68355 9.41976 8.49999 10.4962 8.86739 11.2974C9.46375 12.5861 10.9865 13.0842 11.3957 13.0341C11.7974 12.9849 13.1682 12.1169 13.4226 10.7395C13.5857 9.87324 13.1478 8.87293 12.2342 8.70019C11.7618 8.61188 11.1836 8.79041 10.9371 9.28989C10.5564 8.88263 9.97218 8.82341 9.52841 9.03163Z" fill="#333333"/>
<path fill-rule="evenodd" clip-rule="evenodd" d="M21.3584 12.1183L17.3304 27.1508C17.1875 27.6843 17.504 28.2326 18.0375 28.3756L22.5577 29.5868L25.4093 18.9446C25.4717 18.7118 25.7109 18.5736 25.9437 18.636C26.1765 18.6984 26.3146 18.9377 26.2523 19.1704L23.4007 29.8126L27.907 31.0201C28.4405 31.163 28.9888 30.8464 29.1317 30.313L33.1597 15.2804C33.3026 14.747 32.9861 14.1986 32.4526 14.0557L22.5831 11.4112C22.0496 11.2682 21.5013 11.5848 21.3584 12.1183Z" fill="#333333"/>
</svg>
